{
	"info": {
		"_postman_id": "5a955133-ef7c-4565-b699-dbb404ce5975",
		"name": "boredapi.com",
		"schema": "https://schema.getpostman.com/json/collection/v2.1.0/collection.json",
		"_exporter_id": "9111427"
	},
	"item": [
		{
			"name": "Get one activity",
			"request": {
				"method": "GET",
				"header": [],
				"url": {
					"raw": "https://boredapi.com/api/activity",
					"protocol": "https",
					"host": [
						"boredapi",
						"com"
					],
					"path": [
						"api",
						"activity"
					]
				}
			},
			"response": []
		},
		{
			"name": "Get acitivity by key",
			"request": {
				"method": "GET",
				"header": [],
				"url": {
					"raw": "https://boredapi.com/api/activity?key=1770521",
					"protocol": "https",
					"host": [
						"boredapi",
						"com"
					],
					"path": [
						"api",
						"activity"
					],
					"query": [
						{
							"key": "key",
							"value": "1770521"
						}
					]
				}
			},
			"response": []
		},
		{
			"name": "Get acitivity by participants",
			"request": {
				"method": "GET",
				"header": [],
				"url": {
					"raw": "https://boredapi.com/api/activity?participants=1",
					"protocol": "https",
					"host": [
						"boredapi",
						"com"
					],
					"path": [
						"api",
						"activity"
					],
					"query": [
						{
							"key": "participants",
							"value": "1"
						}
					]
				}
			},
			"response": []
		},
		{
			"name": "Get acitivity by type",
			"request": {
				"method": "GET",
				"header": [],
				"url": {
					"raw": "https://boredapi.com/api/activity?type=relaxation",
					"protocol": "https",
					"host": [
						"boredapi",
						"com"
					],
					"path": [
						"api",
						"activity"
					],
					"query": [
						{
							"key": "type",
							"value": "relaxation"
						}
					]
				}
			},
			"response": []
		},
		{
			"name": "Get acitivity by price range",
			"request": {
				"method": "GET",
				"header": [],
				"url": {
					"raw": "https://boredapi.com/api/activity?minprice=.5&maxprice=1",
					"protocol": "https",
					"host": [
						"boredapi",
						"com"
					],
					"path": [
						"api",
						"activity"
					],
					"query": [
						{
							"key": "minprice",
							"value": ".5"
						},
						{
							"key": "maxprice",
							"value": "1"
						}
					]
				}
			},
			"response": []
		}
	]
}