{
	"info": {
		"_postman_id": "a9c8adf1-2c82-4ec3-96d8-3bcb78aafe45",
		"name": "Disorganized Collection",
		"description": "This collection is starting to get disorganized. Organize it using folders.",
		"schema": "https://schema.getpostman.com/json/collection/v2.1.0/collection.json",
		"_exporter_id": "9111427"
	},
	"item": [
		{
			"name": "Get API token",
			"event": [
				{
					"listen": "test",
					"script": {
						"exec": [
							"var data = JSON.parse(responseBody);\r",
							"console.info(\"refresh_token: \" + data.refresh_token);\r",
							"pm.environment.set(\"api_token\", data.refresh_token);"
						],
						"type": "text/javascript"
					}
				}
			],
			"request": {
				"method": "POST",
				"header": [],
				"body": {
					"mode": "raw",
					"raw": "{\r\n    \"username\": \"{{username}}\",\r\n    \"password\": \"{{password}}\",\r\n    \"domain\": \"{{domain}}\"\r\n}",
					"options": {
						"raw": {
							"language": "json"
						}
					}
				},
				"url": {
					"raw": "https://{{vra-server}}/csp/gateway/am/api/login?access_token",
					"protocol": "https",
					"host": [
						"{{vra-server}}"
					],
					"path": [
						"csp",
						"gateway",
						"am",
						"api",
						"login"
					],
					"query": [
						{
							"key": "access_token",
							"value": null
						}
					]
				}
			},
			"response": []
		},
		{
			"name": "Get access token",
			"event": [
				{
					"listen": "test",
					"script": {
						"exec": [
							"var data = JSON.parse(responseBody);\r",
							"console.info(\"access_token: \" + data.token);\r",
							"pm.environment.set(\"access_token\", data.token);"
						],
						"type": "text/javascript"
					}
				},
				{
					"listen": "prerequest",
					"script": {
						"exec": [
							"console.info(\"api_token: \" + pm.environment.get(\"api_token\"));"
						],
						"type": "text/javascript"
					}
				}
			],
			"request": {
				"method": "POST",
				"header": [],
				"body": {
					"mode": "raw",
					"raw": "{\r\n    \"refreshToken\": \"{{api_token}}\"\r\n}",
					"options": {
						"raw": {
							"language": "json"
						}
					}
				},
				"url": {
					"raw": "https://{{vra-server}}/iaas/api/login",
					"protocol": "https",
					"host": [
						"{{vra-server}}"
					],
					"path": [
						"iaas",
						"api",
						"login"
					]
				}
			},
			"response": []
		},
		{
			"name": "Get all actions",
			"event": [
				{
					"listen": "test",
					"script": {
						"exec": [
							"var data = JSON.parse(responseBody);\r",
							"\r",
							"var first_action = data.link[0];\r",
							"\r",
							"var attributes = first_action.attributes;\r",
							"\r",
							"var i = 0;\r",
							"\r",
							"while (i < attributes.length) {\r",
							"    if (attributes[i].name == \"id\") {\r",
							"        break;\r",
							"    }\r",
							"    i++;\r",
							"}\r",
							"\r",
							"if (i >= attributes.length) {\r",
							"    console.error(\"Couldn't find action ID\");\r",
							"} else {\r",
							"    console.info(\"Action ID for first action: \" + attributes[i].value);\r",
							"    pm.environment.set(\"action_id\", attributes[i].value);\r",
							"}"
						],
						"type": "text/javascript"
					}
				}
			],
			"request": {
				"method": "GET",
				"header": [
					{
						"key": "csp-auth-token",
						"value": "{{access_token}}",
						"type": "text"
					},
					{
						"key": "Accept",
						"value": "application/json",
						"type": "text"
					},
					{
						"key": "Content-Type",
						"value": "application/json",
						"type": "text"
					}
				],
				"url": {
					"raw": "https://{{vra-server}}:443/vco/api/actions",
					"protocol": "https",
					"host": [
						"{{vra-server}}"
					],
					"port": "443",
					"path": [
						"vco",
						"api",
						"actions"
					]
				}
			},
			"response": []
		},
		{
			"name": "Get one action",
			"request": {
				"method": "GET",
				"header": [
					{
						"key": "csp-auth-token",
						"value": "{{access_token}}",
						"type": "text"
					},
					{
						"key": "Accept",
						"value": "application/json",
						"type": "text"
					},
					{
						"key": "Content-Type",
						"value": "application/json",
						"type": "text"
					}
				],
				"url": {
					"raw": "https://{{vra-server}}:443/vco/api/actions/{{action_id}}",
					"protocol": "https",
					"host": [
						"{{vra-server}}"
					],
					"port": "443",
					"path": [
						"vco",
						"api",
						"actions",
						"{{action_id}}"
					]
				}
			},
			"response": []
		},
		{
			"name": "Get all packages",
			"event": [
				{
					"listen": "test",
					"script": {
						"exec": [
							"var data = JSON.parse(responseBody);\r",
							"\r",
							"var first_package = data.link[0];\r",
							"\r",
							"var attributes = first_package.attributes;\r",
							"\r",
							"var i = 0;\r",
							"\r",
							"while (i < attributes.length) {\r",
							"    if (attributes[i].name == \"name\") {\r",
							"        break;\r",
							"    }\r",
							"    i++;\r",
							"}\r",
							"\r",
							"if (i >= attributes.length) {\r",
							"    console.error(\"Couldn't find package name\");\r",
							"} else {\r",
							"    console.info(\"Name of first package: \" + attributes[i].value);\r",
							"    pm.environment.set(\"package_name\", attributes[i].value);\r",
							"}"
						],
						"type": "text/javascript"
					}
				}
			],
			"request": {
				"method": "GET",
				"header": [
					{
						"key": "csp-auth-token",
						"value": "{{access_token}}",
						"type": "text"
					}
				],
				"url": {
					"raw": "https://{{vra-server}}:443/vco/api/packages",
					"protocol": "https",
					"host": [
						"{{vra-server}}"
					],
					"port": "443",
					"path": [
						"vco",
						"api",
						"packages"
					]
				}
			},
			"response": []
		},
		{
			"name": "Get one package",
			"request": {
				"method": "GET",
				"header": [
					{
						"key": "csp-auth-token",
						"value": "{{access_token}}",
						"type": "text"
					},
					{
						"key": "Accept",
						"value": "application/json",
						"type": "text"
					},
					{
						"key": "Content-Type",
						"value": "application/json",
						"type": "text"
					}
				],
				"url": {
					"raw": "https://{{vra-server}}:443/vco/api/packages/{{package_name}}",
					"protocol": "https",
					"host": [
						"{{vra-server}}"
					],
					"port": "443",
					"path": [
						"vco",
						"api",
						"packages",
						"{{package_name}}"
					]
				}
			},
			"response": []
		},
		{
			"name": "Get all workflows",
			"event": [
				{
					"listen": "test",
					"script": {
						"exec": [
							"var data = JSON.parse(responseBody);\r",
							"\r",
							"var first_workflow = data.link[0];\r",
							"\r",
							"var attributes = first_workflow.attributes;\r",
							"\r",
							"var i = 0;\r",
							"\r",
							"while (i < attributes.length) {\r",
							"    if (attributes[i].name == \"id\") {\r",
							"        break;\r",
							"    }\r",
							"    i++;\r",
							"}\r",
							"\r",
							"if (i >= attributes.length) {\r",
							"    console.error(\"Couldn't find workflow ID\");\r",
							"} else {\r",
							"    console.info(\"Workflow ID for first workflow: \" + attributes[i].value);\r",
							"    pm.environment.set(\"workflow_id\", attributes[i].value);\r",
							"}"
						],
						"type": "text/javascript"
					}
				}
			],
			"request": {
				"method": "GET",
				"header": [
					{
						"key": "csp-auth-token",
						"value": "{{access_token}}",
						"type": "text"
					},
					{
						"key": "Accept",
						"value": "application/json",
						"type": "text"
					},
					{
						"key": "Content-Type",
						"value": "application/json",
						"type": "text"
					}
				],
				"url": {
					"raw": "https://{{vra-server}}:443/vco/api/workflows",
					"protocol": "https",
					"host": [
						"{{vra-server}}"
					],
					"port": "443",
					"path": [
						"vco",
						"api",
						"workflows"
					]
				}
			},
			"response": []
		},
		{
			"name": "Get one workflow",
			"request": {
				"method": "GET",
				"header": [
					{
						"key": "csp-auth-token",
						"value": "{{access_token}}",
						"type": "text"
					},
					{
						"key": "Accept",
						"value": "application/json",
						"type": "text"
					},
					{
						"key": "Content-Type",
						"value": "application/json",
						"type": "text"
					}
				],
				"url": {
					"raw": "https://{{vra-server}}:443/vco/api/workflows/{{workflow_id}}",
					"protocol": "https",
					"host": [
						"{{vra-server}}"
					],
					"port": "443",
					"path": [
						"vco",
						"api",
						"workflows",
						"{{workflow_id}}"
					]
				}
			},
			"response": []
		}
	]
}